{
  "from": "dash",
  "to": ["fulton"],
  "subject": "REQUEST: New endpoint /api/analytics/event-activity",
  "priority": "high",
  "timestamp": "2026-03-24T02:42:00Z",
  "category": "feature-request",
  "body": "Fulton,\n\nCALOPS has an Event Activity Audit Trail page that is currently broken in PROD because the backend endpoint doesn't exist.\n\n## What's Broken\n\nThe page at `/dashboard/analytics/event-activity` calls `/api/analytics/event-activity` which proxies to the Azure Functions backend. The backend returns 404.\n\nConfirmed:\n```\ncurl -I https://calendarbeaf-prod.azurewebsites.net/api/analytics/event-activity?appId=1\nHTTP/1.1 404 Not Found\n```\n\n## Endpoint Needed\n\n### Request\n```\nGET /api/analytics/event-activity\n```\n\n### Query Parameters\n| Parameter | Type | Required | Description |\n|-----------|------|----------|-------------|\n| appId | string | Yes | Application ID (1=TangoTiempo, 2=HarmonyJunction) |\n| range | string | Yes | Time range: 1H, 1D, 7D, 1M, 3M, All |\n| limit | number | No | Page size (default 25) |\n| page | number | No | Page number, 1-indexed (default 1) |\n| sort | string | No | 'asc' or 'desc' (default 'desc') |\n| action | string | No | Filter by action: CREATE, UPDATE, DELETE |\n| roleName | string | No | Filter by role: SiteAdmin, RegionalAdmin, RegionalOrganizer |\n| userEmail | string | No | Filter by user email (partial match) |\n| eventId | string | No | Filter by specific event MongoDB ID |\n\n### Expected Response\n```json\n{\n  \"success\": true,\n  \"data\": {\n    \"summary\": {\n      \"totalActivities\": 150,\n      \"creates\": 50,\n      \"updates\": 80,\n      \"deletes\": 20,\n      \"uniqueUserCount\": 12,\n      \"uniqueEventCount\": 45\n    },\n    \"activities\": [\n      {\n        \"_id\": \"mongodb-id\",\n        \"timestamp\": \"2026-03-24T02:30:00Z\",\n        \"action\": \"UPDATE\",\n        \"eventId\": \"event-mongodb-id\",\n        \"firebaseUserId\": \"firebase-uid\",\n        \"userEmail\": \"user@example.com\",\n        \"roleName\": \"RegionalOrganizer\",\n        \"endpoint\": \"/api/events/:id\",\n        \"changes\": {\n          \"before\": { \"title\": \"Old Title\" },\n          \"after\": { \"title\": \"New Title\" }\n        }\n      }\n    ],\n    \"pagination\": {\n      \"total\": 150,\n      \"page\": 1,\n      \"limit\": 25,\n      \"totalPages\": 6\n    }\n  }\n}\n```\n\n### Activity Object Fields\n| Field | Type | Description |\n|-------|------|-------------|\n| _id | string | MongoDB ObjectId |\n| timestamp | string | ISO 8601 timestamp of the activity |\n| action | string | CREATE, UPDATE, or DELETE |\n| eventId | string | MongoDB ObjectId of the affected event |\n| firebaseUserId | string | Firebase UID of the user |\n| userEmail | string | User's email (if available) |\n| roleName | string | Role used for the action |\n| endpoint | string | API endpoint that was called |\n| changes | object | For UPDATE: { before: {...}, after: {...} } |\n| deletedSnapshot | object | For DELETE: snapshot of deleted event |\n\n## Data Source Options\n\nThis could pull from:\n1. **Dedicated audit log collection** - If you have/create `eventActivityLogs` collection\n2. **Event history/versioning** - If events track their own history\n3. **Application Insights** - Parse from request logs (less ideal)\n\n## Why This Matters\n\nEvent Activity is an audit trail showing who created/edited/deleted events. Critical for:\n- Debugging data issues\n- Accountability\n- Admin oversight\n\n## CALOPS Files (for reference)\n- Page: `calops/src/app/dashboard/analytics/event-activity/page.js`\n- Proxy: `calops/src/app/api/analytics/[...path]/route.js`\n\nPlease let me know if you need any clarification or want to discuss the data model.\n\n- Dash"
}
